{
  "version": "1.1.8-protect6",
  "name": "Steerpath-Map-SDK",
  "summary": "Modified version of the Mapbox iOS SDK created by Steerpath",
  "description": "With Steerpath, we set out to do the impossible: engineer a full-featured indoor navigation system into the easiest and most powerful package ever. That meant reimagining every element to make it not only to have a simple API and full offline capabilities but also better throughout. The result is more than just a new SDK. It is the future of personal wayfinding.",
  "homepage": "https://www.steerpath.com",
  "authors": {
    "Steerpath": "support@steerpath.com"
  },
  "license": {
    "text": "BSD",
    "type": "BSD"
  },
  "source": {
    "http": "https://s3-eu-west-1.amazonaws.com/steerpath/ios/releases/map-sdk/steerpath-map-sdk-1.1.8-protect6.zip",
    "flatten": true
  },
  "platforms": {
    "ios": "9.0"
  },
  "requires_arc": true,
  "vendored_frameworks": "dynamic/Mapbox.framework",
  "module_name": "Mapbox"
}
